n – r / k,0,1,2,3,4,5,6,7,8
1,8.19,11.42,14.39,17.23,19.97,22.64,25.27,27.85,30.39
2,18.11,23.62,28.88,33.98,38.95,43.87,48.72,53.5,58.24
3,31.88,39.56,46.99,54.27,61.41,68.48,75.46,82.39,89.3
4,49.64,59.42,68.97,78.34,87.61,96.78,105.91,114.97,123.95
5,71.44,83.26,94.89,106.36,117.71,128.97,140.19,151.33,162.4
6,97.26,111.11,124.77,138.3,151.72,165.06,178.33,191.53,204.67
7,127.05,142.93,158.66,174.26,189.75,205.15,220.48,235.73,250.95
8,160.87,178.8,196.54,214.15,231.7,249.12,266.49,283.8,301.05
9,198.72,218.63,238.41,258.04,277.62,297.11,316.49,335.85,355.14
10,240.58,262.48,284.26,305.92,327.53,349.05,370.49,391.89,413.22
11,286.39,310.33,334.09,357.78,381.4,404.93,428.42,451.82,475.15
12,336.22,362.07,387.9,413.63,439.3,464.86,490.33,515.77,541.21